{
  "data": [
    {
      "id": 10,
      "attributes": {
        "title": "test6",
        "content": "test",
        "createdAt": "2022-04-11T16:47:53.969Z",
        "updatedAt": "2022-04-11T16:49:21.003Z",
        "publishedAt": "2022-04-11T16:49:20.931Z",
        "locale": "en",
        "coverImage": {
          "data": {
            "id": 7,
            "attributes": {
              "name": "IMG_1718.JPG",
              "alternativeText": "IMG_1718.JPG",
              "caption": "IMG_1718.JPG",
              "width": 4032,
              "height": 3024,
              "formats": {
                "large": {
                  "ext": ".JPG",
                  "url": "https://storage.googleapis.com/teenaii-assets/cms/large_IMG_1718_a7516c9c88/large_IMG_1718_a7516c9c88.jpg",
                  "hash": "large_IMG_1718_a7516c9c88",
                  "mime": "image/jpeg",
                  "name": "large_IMG_1718.JPG",
                  "path": null,
                  "size": 107.39,
                  "width": 1000,
                  "height": 750
                },
                "small": {
                  "ext": ".JPG",
                  "url": "https://storage.googleapis.com/teenaii-assets/cms/small_IMG_1718_a7516c9c88/small_IMG_1718_a7516c9c88.jpg",
                  "hash": "small_IMG_1718_a7516c9c88",
                  "mime": "image/jpeg",
                  "name": "small_IMG_1718.JPG",
                  "path": null,
                  "size": 33.88,
                  "width": 500,
                  "height": 375
                },
                "medium": {
                  "ext": ".JPG",
                  "url": "https://storage.googleapis.com/teenaii-assets/cms/medium_IMG_1718_a7516c9c88/medium_IMG_1718_a7516c9c88.jpg",
                  "hash": "medium_IMG_1718_a7516c9c88",
                  "mime": "image/jpeg",
                  "name": "medium_IMG_1718.JPG",
                  "path": null,
                  "size": 65.35,
                  "width": 750,
                  "height": 563
                },
                "xlarge": {
                  "ext": ".JPG",
                  "url": "https://storage.googleapis.com/teenaii-assets/cms/xlarge_IMG_1718_a7516c9c88/xlarge_IMG_1718_a7516c9c88.jpg",
                  "hash": "xlarge_IMG_1718_a7516c9c88",
                  "mime": "image/jpeg",
                  "name": "xlarge_IMG_1718.JPG",
                  "path": null,
                  "size": 344.72,
                  "width": 1920,
                  "height": 1440
                },
                "xsmall": {
                  "ext": ".JPG",
                  "url": "https://storage.googleapis.com/teenaii-assets/cms/xsmall_IMG_1718_a7516c9c88/xsmall_IMG_1718_a7516c9c88.jpg",
                  "hash": "xsmall_IMG_1718_a7516c9c88",
                  "mime": "image/jpeg",
                  "name": "xsmall_IMG_1718.JPG",
                  "path": null,
                  "size": 1.37,
                  "width": 64,
                  "height": 48
                },
                "thumbnail": {
                  "ext": ".JPG",
                  "url": "https://storage.googleapis.com/teenaii-assets/cms/thumbnail_IMG_1718_a7516c9c88/thumbnail_IMG_1718_a7516c9c88.jpg",
                  "hash": "thumbnail_IMG_1718_a7516c9c88",
                  "mime": "image/jpeg",
                  "name": "thumbnail_IMG_1718.JPG",
                  "path": null,
                  "size": 8.01,
                  "width": 208,
                  "height": 156
                }
              },
              "hash": "IMG_1718_a7516c9c88",
              "ext": ".JPG",
              "mime": "image/jpeg",
              "size": 1423.65,
              "url": "https://storage.googleapis.com/teenaii-assets/cms/IMG_1718_a7516c9c88/IMG_1718_a7516c9c88.jpg",
              "previewUrl": null,
              "provider": "strapi-provider-upload-google-cloud-storage",
              "provider_metadata": null,
              "createdAt": "2022-04-01T13:27:59.281Z",
              "updatedAt": "2022-04-01T13:27:59.281Z"
            }
          }
        },
        "images": {
          "data": null
        },
        "localizations": {
          "data": []
        }
      }
    },
    {
      "id": 14,
      "attributes": {
        "title": "t",
        "content": "t",
        "createdAt": "2022-04-19T10:57:21.265Z",
        "updatedAt": "2022-04-19T11:08:23.603Z",
        "publishedAt": "2022-04-19T11:08:23.498Z",
        "locale": "en",
        "coverImage": {
          "data": {
            "id": 6,
            "attributes": {
              "name": "0_EfvHYbY5viggVlSK.png",
              "alternativeText": "0_EfvHYbY5viggVlSK.png",
              "caption": "0_EfvHYbY5viggVlSK.png",
              "width": 1024,
              "height": 843,
              "formats": {
                "large": {
                  "ext": ".png",
                  "url": "https://storage.googleapis.com/teenaii-assets/cms/large_0_Efv_H_Yb_Y5vigg_Vl_SK_5374b6db9f/large_0_Efv_H_Yb_Y5vigg_Vl_SK_5374b6db9f.png",
                  "hash": "large_0_Efv_H_Yb_Y5vigg_Vl_SK_5374b6db9f",
                  "mime": "image/png",
                  "name": "large_0_EfvHYbY5viggVlSK.png",
                  "path": null,
                  "size": 580.89,
                  "width": 1000,
                  "height": 823
                },
                "small": {
                  "ext": ".png",
                  "url": "https://storage.googleapis.com/teenaii-assets/cms/small_0_Efv_H_Yb_Y5vigg_Vl_SK_5374b6db9f/small_0_Efv_H_Yb_Y5vigg_Vl_SK_5374b6db9f.png",
                  "hash": "small_0_Efv_H_Yb_Y5vigg_Vl_SK_5374b6db9f",
                  "mime": "image/png",
                  "name": "small_0_EfvHYbY5viggVlSK.png",
                  "path": null,
                  "size": 182.44,
                  "width": 500,
                  "height": 412
                },
                "medium": {
                  "ext": ".png",
                  "url": "https://storage.googleapis.com/teenaii-assets/cms/medium_0_Efv_H_Yb_Y5vigg_Vl_SK_5374b6db9f/medium_0_Efv_H_Yb_Y5vigg_Vl_SK_5374b6db9f.png",
                  "hash": "medium_0_Efv_H_Yb_Y5vigg_Vl_SK_5374b6db9f",
                  "mime": "image/png",
                  "name": "medium_0_EfvHYbY5viggVlSK.png",
                  "path": null,
                  "size": 372.15,
                  "width": 750,
                  "height": 617
                },
                "xsmall": {
                  "ext": ".png",
                  "url": "https://storage.googleapis.com/teenaii-assets/cms/xsmall_0_Efv_H_Yb_Y5vigg_Vl_SK_5374b6db9f/xsmall_0_Efv_H_Yb_Y5vigg_Vl_SK_5374b6db9f.png",
                  "hash": "xsmall_0_Efv_H_Yb_Y5vigg_Vl_SK_5374b6db9f",
                  "mime": "image/png",
                  "name": "xsmall_0_EfvHYbY5viggVlSK.png",
                  "path": null,
                  "size": 5.31,
                  "width": 64,
                  "height": 53
                },
                "thumbnail": {
                  "ext": ".png",
                  "url": "https://storage.googleapis.com/teenaii-assets/cms/thumbnail_0_Efv_H_Yb_Y5vigg_Vl_SK_5374b6db9f/thumbnail_0_Efv_H_Yb_Y5vigg_Vl_SK_5374b6db9f.png",
                  "hash": "thumbnail_0_Efv_H_Yb_Y5vigg_Vl_SK_5374b6db9f",
                  "mime": "image/png",
                  "name": "thumbnail_0_EfvHYbY5viggVlSK.png",
                  "path": null,
                  "size": 32.09,
                  "width": 189,
                  "height": 156
                }
              },
              "hash": "0_Efv_H_Yb_Y5vigg_Vl_SK_5374b6db9f",
              "ext": ".png",
              "mime": "image/png",
              "size": 99.79,
              "url": "https://storage.googleapis.com/teenaii-assets/cms/0_Efv_H_Yb_Y5vigg_Vl_SK_5374b6db9f/0_Efv_H_Yb_Y5vigg_Vl_SK_5374b6db9f.png",
              "previewUrl": null,
              "provider": "strapi-provider-upload-google-cloud-storage",
              "provider_metadata": null,
              "createdAt": "2022-03-30T22:18:30.885Z",
              "updatedAt": "2022-03-30T22:18:30.885Z"
            }
          }
        },
        "images": {
          "data": null
        },
        "localizations": {
          "data": []
        }
      }
    }
  ],
  "paging": {
    "next": null,
    "previous": "https://raw.githubusercontent.com/teenaii-platform/teenaii-cms-json-data/main/blogs__1.json",
    "total_page": 2,
    "page": 2,
    "total_items": 12
  }
}